{
  "version": 1,
  "type": "doc",
  "content": [
    {
      "type": "bodiedExtension",
      "attrs": {
        "extensionType": "com.atlassian.confluence.macro.core",
        "extensionKey": "expand"
      },
      "content": [
        {
          "type": "extension",
          "attrs": {
            "extensionType": "com.atlassian.confluence.macro",
            "extensionKey": "gallery"
          },
          "content": [
            {
              "type": "paragraph",
              "content": []
            }
          ]
        }
      ]
    }
  ]
}
